<svg xmlns="http://www.w3.org/2000/svg" width="19.167" height="20" viewBox="0 0 19.167 20">
    <g id="Icons_Navigation_icon_12_states_" data-name="Icons / Navigation icon (12 states)" transform="translate(1.009 1)">
      <g id="ic_setting" transform="translate(0)">
        <path id="Path_387" data-name="Path 387" d="M10.006,4.317a1.632,1.632,0,0,1,3.2,0A1.7,1.7,0,0,0,14.181,5.5a1.585,1.585,0,0,0,1.489-.121,1.687,1.687,0,0,1,2.266,2.37,1.793,1.793,0,0,0-.115,1.556,1.672,1.672,0,0,0,1.134,1.016,1.744,1.744,0,0,1,0,3.35,1.672,1.672,0,0,0-1.135,1.016,1.793,1.793,0,0,0,.115,1.557,1.687,1.687,0,0,1-2.266,2.37,1.585,1.585,0,0,0-1.488-.12,1.7,1.7,0,0,0-.971,1.185,1.632,1.632,0,0,1-3.2,0A1.7,1.7,0,0,0,9.035,18.5a1.585,1.585,0,0,0-1.489.121,1.687,1.687,0,0,1-2.266-2.37A1.793,1.793,0,0,0,5.4,14.691a1.672,1.672,0,0,0-1.134-1.016c-1.306-.331-1.6-1.917-.654-3.023a1.322,1.322,0,0,1,.654-.327A1.672,1.672,0,0,0,5.4,9.309a1.793,1.793,0,0,0-.115-1.557,1.687,1.687,0,0,1,2.266-2.37,1.629,1.629,0,0,0,2.459-1.065Z" transform="translate(-3.055 -3)" fill="none" stroke="#7e84a3" stroke-linecap="round" stroke-linejoin="round" stroke-width="2"/>
        <circle id="Ellipse_2" data-name="Ellipse 2" cx="3" cy="3" r="3" transform="translate(5.545 6)" fill="none" stroke="#7e84a3" stroke-linecap="round" stroke-linejoin="round" stroke-width="2"/>
      </g>
    </g>
  </svg>
  